AWSTATS DATA FILE 5.5 (build 1.479)
# If you remove this file, all statistics for date 2004-10 will be lost/reset.

# Position (offset in bytes) in this file of beginning of each section
# for direct I/O access. If you made changes somewhere in this file, you
# should also remove completely the MAP section (AWStats will rewrite it
# at next update).
BEGIN_MAP 25
POS_GENERAL 1732                
POS_TIME 2073                
POS_VISITOR 4863                
POS_DAY 5193                
POS_DOMAIN 2468                
POS_LOGIN 2651                
POS_ROBOT 2785                
POS_WORMS 5505                
POS_EMAILSENDER 2916                
POS_EMAILRECEIVER 3059                
POS_SESSION 5565                
POS_SIDER 5758                
POS_FILETYPES 3194                
POS_OS 3298                
POS_BROWSER 3370                
POS_SCREENSIZE 3448                
POS_UNKNOWNREFERER 3522                
POS_UNKNOWNREFERERBROWSER 3609                
POS_ORIGIN 3691                
POS_SEREFERRALS 3830                
POS_PAGEREFS 3974                
POS_SEARCHWORDS 4228                
POS_KEYWORDS 4380                
POS_ERRORS 4439                
POS_SIDER_404 4536                
END_MAP

# LastLine    = Date of last record processed - Last record offset in last log - Last record signature value
# FirstTime   = Date of first visit for history file
# LastTime    = Date of last visit for history file
# LastUpdate  = Date of last update - Nb of lines read - Nb of old records - Nb of new records - Nb of corrupted - Nb of dropped
# TotalVisits = Number of visits
# TotalUnique = Number of unique visitors
# MonthHostsKnown   = Number of hosts known
# MonthHostsUnKnown = Number of hosts unknown
BEGIN_GENERAL 8
LastLine 20041103122334 590590 49062661105
FirstTime 20041001120835
LastTime 20041029203447
LastUpdate 20041103233513 3654 2889 1 0 764
TotalVisits 11                  
TotalUnique 4                   
MonthHostsKnown 4                   
MonthHostsUnknown 0                   
END_GENERAL

# Hour - Pages - Hits - Bandwidth
BEGIN_TIME 24
0 0 0 0
1 0 0 0
2 0 0 0
3 0 0 0
4 0 0 0
5 0 0 0
6 0 0 0
7 0 0 0
8 3 31 79718
9 0 0 0
10 13 121 264023
11 33 351 540254
12 71 392 972354
13 1 29 60834
14 23 139 313568
15 20 116 228441
16 74 554 883812
17 0 0 0
18 0 0 0
19 0 0 0
20 3 3 28326
21 0 0 0
22 0 0 0
23 0 0 0
END_TIME

# Domain - Pages - Hits - Bandwidth
# The 20 first Pages must be first (order not required for others)
BEGIN_DOMAIN 2
com 140 1159 1783267
net 101 577 1588063
END_DOMAIN

# Login - Pages - Hits - Bandwidth - Last visit
# The 10 first Pages must be first (order not required for others)
BEGIN_LOGIN 0
END_LOGIN

# Robot ID - Hits - Bandwidth - Last visit
# The 10 first Hits must be first (order not required for others)
BEGIN_ROBOT 0
END_ROBOT

# EMail - Hits - Bandwidth - Last visit
# The 20 first Hits must be first (order not required for others)
BEGIN_EMAILSENDER 0
END_EMAILSENDER

# EMail - Hits - Bandwidth - Last visit
# The 20 first hits must be first (order not required for others)
BEGIN_EMAILRECEIVER 0
END_EMAILRECEIVER

# Files type - Hits - Bandwidth - Bandwidth without compression - Bandwidth after compression
BEGIN_FILETYPES 3
php 6 9080 0 0
gif 1495 739305 0 0
html 235 2622945 0 0
END_FILETYPES

# OS ID - Hits
BEGIN_OS 3
win98 1017
winxp 161
win2000 558
END_OS

# Browser ID - Hits
BEGIN_BROWSER 2
netscape5.0 34
msie6.0 1702
END_BROWSER

# Screen size - Hits
BEGIN_SCREENSIZE 0
END_SCREENSIZE

# Unknown referer OS - Last visit date
BEGIN_UNKNOWNREFERER 0
END_UNKNOWNREFERER

# Unknown referer Browser - Last visit date
BEGIN_UNKNOWNREFERERBROWSER 0
END_UNKNOWNREFERERBROWSER

# Origin - Pages - Hits 
BEGIN_ORIGIN 6
From0 81 81
From1 0 0
From2 0 0
From3 12 12
From4 148 1643
From5 0 0
END_ORIGIN

# Search engine referers ID - Pages - Hits
BEGIN_SEREFERRALS 0
END_SEREFERRALS

# External page referers - Pages - Hits
# The 10 first Pages must be first (order not required for others)
BEGIN_PAGEREFS 2
http://email.secureserver.net/view.php 6 6
http://lserv2.dtopinc.com/nationalwebbing/oldsite/oldsite/ 6 6
END_PAGEREFS

# Search keyphrases - Number of search
# The 20 first number of search must be first (order not required for others)
BEGIN_SEARCHWORDS 0
END_SEARCHWORDS

# Search keywords - Number of search
# The 20 first number of search must be first (order not required for others)
BEGIN_KEYWORDS 0
END_KEYWORDS

# Errors - Hits - Bandwidth
BEGIN_ERRORS 2
206 1 460
404 15 4620
END_ERRORS

# URL with 404 errors - Hits - Last URL referer
BEGIN_SIDER_404 1
/favicon.ico 15 -
END_SIDER_404

# Host - Pages - Hits - Bandwidth - Last visit date - [Start of last visit date] - [Last page of last visit]
# [Start of last visit date] and [Last page of last visit] are saved only if session is not finished
# The 20 first Hits must be first (order not required for others)
BEGIN_VISITOR 4
cl183-130.dsl.invision.com 140 1159 1783267 20041019150656
ip-64-32-229-249.dsl.nyc.megapath.net 86 416 1331851 20041006112008
pool-141-155-150-228.ny5030.east.verizon.net 9 127 148168 20041018152836
ool-182f3326.dyn.optonline.net 6 34 108044 20041029203447
END_VISITOR

# Date - Pages - Hits - Bandwidth - Visits
BEGIN_DAY 8
20041001 62 225 826432 1
20041004 15 150 339984 2
20041006 9 41 165435 1
20041007 78 558 884152 1
20041008 28 391 366616 1
20041018 9 127 148168 2
20041019 34 210 532499 1
20041029 6 34 108044 2
END_DAY

# Worm ID - Hits - Last visit
# The 10 first Hits must be first (order not required for others)
BEGIN_WORMS 0
END_WORMS

# Session range - Number of visits
BEGIN_SESSION 6
0s-30s 2
1h+ 1
5mn-15mn 1
30s-2mn 1
2mn-5mn 3
30mn-1h 3
END_SESSION

# URL - Pages - Bandwidth - Entry - Exit
# The 20 first Pages must be first (order not required for others)
BEGIN_SIDER 7
/shipping_status.html 84 864725 6 6
/order_history.html 72 811249 0 1
/order_history_display.html 51 713173 2 1
/order_history_detail_display.html 21 230841 0 3
/import-cron.php 6 9080 1 0
/ 6 510 2 0
/admin.html 1 2447 0 0
END_SIDER
