18328580	69.50.105.45	69-50-105-45.customers.pingtone.net
18328580	69.18.183.130	cl183-130.dsl.invision.com
18328580	64.32.229.249	ip-64-32-229-249.dsl.nyc.megapath.net
18328580	24.186.210.114	ool-18bad272.dyn.optonline.net
18328580	141.155.150.228	pool-141-155-150-228.ny5030.east.verizon.net
18328580	24.186.79.148	ool-18ba4f94.dyn.optonline.net
18328580	24.47.51.38	ool-182f3326.dyn.optonline.net
